Dplyr verbs for Spatial — dplyr-Spatial • spdplyr
…
#> some functionality will be moved to 'sp'.
data(wrld_simpl)
library(spdplyr)
library(raster)
#> 
#> Attaching package: ‘raster’
#> The following object is masked from ‘package:dplyr’:
#> 
#>     select
wrld_simpl %>% mutate(NAME = "allthesame", REGION = row_number())
#> class       : SpatialPolygonsDataFrame 
#> features    : 246 
#> extent      : -180, 180, -90, 83.57027  (xmin, xmax, ymin, ymax)
#> variables   : 11
#> # A tibble: 246 × 11
#>    FIPS  ISO2  ISO3     UN NAME      AREA POP2005 REGION SUBREGION     LON   LAT
#>    <fct> <fct> <fct> <int> <chr>    <int>   <dbl>  <int>     <int>   <dbl> <dbl>
#>  1 AC    AG    ATG      28 allthe…     44  8.30e4      1        29  -61.8   17.1
#>  2 AG    DZ    DZA      12 allthe… 238174  3.29e7      2        15    2.63  28.2
#>  3 AJ    AZ    AZE      31 allthe…   8260  8.35e6      3       145   47.4   40.4
#>  4 AL    AL    ALB       8 allthe…   2740  3.15e6      4        39   20.1   41.1
#>  5 AM    AM    ARM      51 allthe…   2820  3.02e6      5       145   44.6   40.5
#>  6 AO    AO    AGO      24 allthe… 124670  1.61e7      6        17   17.5  -12.3
#>  7 AQ    AS    ASM      16 allthe…     20  6.41e4      7        61 -171.   -14.3
#>  8 AR    AR    ARG      32 allthe… 273669  3.87e7      8         5  -65.2  -35.4
#>  9 AS    AU    AUS      36 allthe… 768230  2.03e7      9        53  136.   -25.0
#> 10 BA    BH    BHR      48 allthe…     71  7.25e5     10       145   50.6   26.0
#> # ℹ 236 more rows
wrld_simpl %>% transmute(alpha = paste0(FIPS, NAME))
#> class       : SpatialPolygonsDataFrame 
#> features    : 246 
#> extent      : -180, 180, -90, 83.57027  (xmin, xmax, ymin, ymax)
#> variables   : 1
#> # A tibble: 246 × 1
#>    alpha                
#>    <chr>                
#>  1 ACAntigua and Barbuda
#>  2 AGAlgeria            
#>  3 AJAzerbaijan         
#>  4 ALAlbania            
#>  5 AMArmenia            
#>  6 AOAngola             
#>  7 AQAmerican Samoa     
#>  8 ARArgentina          
#>  9 ASAustralia          
#> 10 BABahrain            
#> # ℹ 236 more rows
…
